1524302851725 BATTERY -1147500, 5634000, 36112727035, 4178
1524302851729 HARDWARE_CALL_BEGIN
1524302851730 CPU_PID_STAT 13048 (ax.linklayerapp) R 220 220 0 0 -1 4194624 91917 3350 27 6 5279 1828 5 2 20 0 21 0 50812397 1573285888 20785 18446744073709551615 367440556032 367440571376 549257168784 549257162880 547941313628 0 4612 0 38136 18446744073709551615 0 0 17 0 0 0 0 0 0 367440640656 367440642056 367813627904 549257169963 549257170062 549257170062 549257170910 0
1524302851731 CPU_STAT cpu  992486 335917 1136659 97892359 44161 138 33166 0 0 0
1524302851733 HARDWARE_CALL_END
1524302851734 EVENT_TRIGGER LINK_DISCOVERY_OFF
1524302851748 EVENT_TRIGGER LINK_VISIBILITY_OFF
1524302851749 EVENT_TRIGGER LINK_HARDWARE_OFF
1524302851756 MEMORY 384103 20793 13182 4 0 44431 0
1524302851815 EVENT_TRIGGER LINK_HARDWARE_ON
1524302851815 HARDWARE true
1524302851816 DISCOVERY_CALL_BEGIN
1524302851816 DISCOVERY_CALL_END
1524302851887 EVENT_TRIGGER LINK_DISCOVERY_ON
1524302851887 DISCOVERING true
1524302851887 EVENT_TRIGGER LINK_VISIBILITY_ON
1524302851959 BATTERY -2203750, 5632500, 36112099752, 4178
1524302851961 CPU_PID_STAT 13048 (ax.linklayerapp) S 220 220 0 0 -1 1077936448 91968 3350 27 6 5284 1832 5 2 20 0 21 0 50812397 1573294080 20819 18446744073709551615 367440556032 367440571376 549257168784 549257164416 547941309284 0 4612 0 38136 18446744073709551615 0 0 17 0 0 0 0 0 0 367440640656 367440642056 367813627904 549257169963 549257170062 549257170062 549257170910 0
1524302851962 CPU_STAT cpu  992505 335919 1136674 97892369 44162 138 33167 0 0 0
1524302851962 MEMORY 384105 20826 13184 4 0 44431 0
1524302852165 BATTERY -866562, 5628000, 36111935590, 4178
1524302852166 CPU_PID_STAT 13048 (ax.linklayerapp) S 220 220 0 0 -1 1077936448 91987 3350 27 6 5284 1832 5 2 20 0 21 0 50812397 1573294080 20832 18446744073709551615 367440556032 367440571376 549257168784 549257164416 547941309284 0 4612 0 38136 18446744073709551615 0 0 17 0 0 0 0 0 0 367440640656 367440642056 367813627904 549257169963 549257170062 549257170062 549257170910 0
1524302852167 CPU_STAT cpu  992509 335919 1136680 97892400 44162 138 33167 0 0 0
1524302852167 MEMORY 384105 20839 13184 4 0 44431 0
1524302852370 BATTERY -754062, 5627500, 36111792740, 4178
1524302852371 CPU_PID_STAT 13048 (ax.linklayerapp) S 220 220 0 0 -1 1077936448 92006 3350 27 6 5286 1832 5 2 20 0 21 0 50812397 1573294080 20845 18446744073709551615 367440556032 367440571376 549257168784 549257164416 547941309284 0 4612 0 38136 18446744073709551615 0 0 17 1 0 0 0 0 0 367440640656 367440642056 367813627904 549257169963 549257170062 549257170062 549257170910 0
1524302852372 CPU_STAT cpu  992512 335919 1136684 97892433 44162 138 33167 0 0 0
1524302852373 MEMORY 384105 20852 13184 4 0 44431 0
1524302852577 BATTERY -797187, 5627000, 36111641721, 4178
1524302852578 CPU_PID_STAT 13048 (ax.linklayerapp) S 220 220 0 0 -1 1077936448 92026 3350 27 6 5287 1832 5 2 20 0 21 0 50812397 1573294080 20859 18446744073709551615 367440556032 367440571376 549257168784 549257164416 547941309284 0 4612 0 38136 18446744073709551615 0 0 17 1 0 0 0 0 0 367440640656 367440642056 367813627904 549257169963 549257170062 549257170062 549257170910 0
1524302852579 CPU_STAT cpu  992517 335919 1136686 97892469 44162 138 33168 0 0 0
1524302852580 MEMORY 384105 20866 13184 4 0 44431 0
1524302852786 BATTERY -697500, 5627000, 36111509587, 4178
1524302852790 CPU_PID_STAT 13048 (ax.linklayerapp) S 220 220 0 0 -1 1077936448 92045 3350 27 6 5287 1832 5 2 20 0 21 0 50812397 1573294080 20872 18446744073709551615 367440556032 367440571376 549257168784 549257164416 547941309284 0 4612 0 38136 18446744073709551615 0 0 17 1 0 0 0 0 0 367440640656 367440642056 367813627904 549257169963 549257170062 549257170062 549257170910 0
1524302852791 CPU_STAT cpu  992521 335920 1136689 97892499 44162 138 33171 0 0 0
1524302852794 MEMORY 384105 20879 13184 4 0 44431 0
1524302853001 BATTERY -454375, 5627500, 36111335657, 4178
1524302853005 CPU_PID_STAT 13048 (ax.linklayerapp) S 220 220 0 0 -1 1077936448 92064 3350 27 6 5288 1833 5 2 20 0 21 0 50812397 1573294080 20885 18446744073709551615 367440556032 367440571376 549257168784 549257164416 547941309284 0 4612 0 38136 18446744073709551615 0 0 17 1 0 0 0 0 0 367440640656 367440642056 367813627904 549257169963 549257170062 549257170062 549257170910 0
1524302853007 CPU_STAT cpu  992525 335920 1136693 97892534 44162 138 33174 0 0 0
1524302853010 MEMORY 384105 20892 13184 4 0 44431 0
1524302853218 BATTERY -494687, 5628500, 36111241944, 4178
1524302853221 CPU_PID_STAT 13048 (ax.linklayerapp) S 220 220 0 0 -1 1077936448 92083 3350 27 6 5288 1834 5 2 20 0 21 0 50812397 1573294080 20898 18446744073709551615 367440556032 367440571376 549257168784 549257164416 547941309284 0 4612 0 38136 18446744073709551615 0 0 17 1 0 0 0 0 0 367440640656 367440642056 367813627904 549257169963 549257170062 549257170062 549257170910 0
1524302853224 CPU_STAT cpu  992527 335920 1136697 97892571 44162 138 33177 0 0 0
1524302853226 MEMORY 384105 20905 13184 4 0 44431 0
1524302853433 BATTERY -397812, 5629000, 36111166582, 4178
1524302853440 CPU_PID_STAT 13048 (ax.linklayerapp) S 220 220 0 0 -1 1077936448 92135 3350 27 6 5293 1836 5 2 20 0 21 0 50812397 1573294080 20944 18446744073709551615 367440556032 367440571376 549257168784 549257163200 547940980996 0 4612 0 38136 18446744073709551615 0 0 17 0 0 0 0 0 0 367440640656 367440642056 367813627904 549257169963 549257170062 549257170062 549257170910 0
1524302853442 CPU_STAT cpu  992536 335920 1136701 97892597 44162 138 33179 0 0 0
1524302853443 MEMORY 384105 20951 13184 4 0 44431 0
1524302853650 BATTERY -1569375, 5628500, 36110869280, 4178
1524302853657 CPU_PID_STAT 13048 (ax.linklayerapp) S 220 220 0 0 -1 1077936448 92157 3350 27 6 5303 1839 5 2 20 0 21 0 50812397 1573294080 20851 18446744073709551615 367440556032 367440571376 549257168784 549257164416 547941309284 0 4612 0 38136 18446744073709551615 0 0 17 1 0 0 0 0 0 367440640656 367440642056 367813627904 549257169963 549257170062 549257170062 549257170910 0
1524302853658 CPU_STAT cpu  992548 335920 1136709 97892616 44162 138 33183 0 0 0
1524302853661 MEMORY 384105 20853 13184 4 0 44431 0
1524302853867 BATTERY -496562, 5628500, 36110751353, 4178
1524302853871 CPU_PID_STAT 13048 (ax.linklayerapp) S 220 220 0 0 -1 1077936448 92161 3350 27 6 5304 1839 5 2 20 0 21 0 50812397 1573294080 20855 18446744073709551615 367440556032 367440571376 549257168784 549257164416 547941309284 0 4612 0 38136 18446744073709551615 0 0 17 1 0 0 0 0 0 367440640656 367440642056 367813627904 549257169963 549257170062 549257170062 549257170910 0
1524302853873 CPU_STAT cpu  992549 335920 1136709 97892652 44162 138 33186 0 0 0
1524302853876 MEMORY 384105 20857 13184 4 0 44431 0
1524302854084 BATTERY -467812, 5629500, 36110568662, 4178
1524302854088 CPU_PID_STAT 13048 (ax.linklayerapp) S 220 220 0 0 -1 1077936448 92165 3350 27 6 5305 1840 5 2 20 0 21 0 50812397 1573294080 20859 18446744073709551615 367440556032 367440571376 549257168784 549257164416 547941309284 0 4612 0 38136 18446744073709551615 0 0 17 1 0 0 0 0 0 367440640656 367440642056 367813627904 549257169963 549257170062 549257170062 549257170910 0
1524302854090 CPU_STAT cpu  992552 335920 1136710 97892686 44162 138 33189 0 0 0
1524302854092 MEMORY 384105 20861 13184 4 0 44431 0
1524302854300 BATTERY -464687, 5630000, 36110480632, 4178
1524302854303 CPU_PID_STAT 13048 (ax.linklayerapp) S 220 220 0 0 -1 1077936448 92170 3350 27 6 5305 1841 5 2 20 0 21 0 50812397 1573294080 20864 18446744073709551615 367440556032 367440571376 549257168784 549257164416 547941309284 0 4612 0 38136 18446744073709551615 0 0 17 1 0 0 0 0 0 367440640656 367440642056 367813627904 549257169963 549257170062 549257170062 549257170910 0
1524302854304 CPU_STAT cpu  992555 335920 1136713 97892722 44162 138 33191 0 0 0
1524302854307 MEMORY 384105 20866 13184 4 0 44431 0
1524302854496 EVENT_TRIGGER LINK_DISCOVERY_FOUND
1524302854505 EVENT_TRIGGER LINK_DISCOVERY_DONE
1524302854507 DISCOVERY_DONE [WIFI_DIRECT: Android_3479 (b6:ce:f6:09:7a:53): Data []]
1524302854509 CONNECTION_CALL_BEGIN
1524302854512 CONNECTION_CALL_END
1524302854517 BATTERY -467500, 5630500, 36110392068, 4178
1524302854521 CPU_PID_STAT 13048 (ax.linklayerapp) R 220 220 0 0 -1 4194624 92175 3350 27 6 5306 1842 5 2 20 0 21 0 50812397 1573294080 20869 18446744073709551615 367440556032 367440571376 549257168784 549257163440 1932085760 0 4612 0 38136 18446744073709551615 0 0 17 0 0 0 0 0 0 367440640656 367440642056 367813627904 549257169963 549257170062 549257170062 549257170910 0
1524302854522 CPU_STAT cpu  992561 335920 1136720 97892751 44162 138 33195 0 0 0
1524302854524 MEMORY 384105 20871 13184 4 0 44431 0
1524302854530 EVENT_TRIGGER LINK_DISCOVERY_FOUND
1524302854539 EVENT_TRIGGER LINK_DISCOVERY_OFF
1524302854541 EVENT_TRIGGER LINK_VISIBILITY_OFF
1524302854729 BATTERY -696562, 5630000, 36110260112, 4178
1524302854730 CPU_PID_STAT 13048 (ax.linklayerapp) S 220 220 0 0 -1 1077936448 92185 3350 27 6 5314 1845 5 2 20 0 21 0 50812397 1573294080 20879 18446744073709551615 367440556032 367440571376 549257168784 549257164416 547941309284 0 4612 0 38136 18446744073709551615 0 0 17 1 0 0 0 0 0 367440640656 367440642056 367813627904 549257169963 549257170062 549257170062 549257170910 0
1524302854731 CPU_STAT cpu  992575 335920 1136728 97892766 44164 138 33198 0 0 0
1524302854732 MEMORY 384105 20881 13184 4 0 44431 0
1524302854940 BATTERY -261875, 5630500, 36110095654, 4178
1524302854943 CPU_PID_STAT 13048 (ax.linklayerapp) S 220 220 0 0 -1 1077936448 92189 3350 27 6 5315 1846 5 2 20 0 21 0 50812397 1573294080 20883 18446744073709551615 367440556032 367440571376 549257168784 549257164416 547941309284 0 4612 0 38136 18446744073709551615 0 0 17 1 0 0 0 0 0 367440640656 367440642056 367813627904 549257169963 549257170062 549257170062 549257170910 0
1524302854944 CPU_STAT cpu  992577 335920 1136730 97892803 44164 138 33198 0 0 0
1524302854946 MEMORY 384105 20885 13184 4 0 44431 0
1524302855155 BATTERY -284062, 5630500, 36110041841, 4178
1524302855158 CPU_PID_STAT 13048 (ax.linklayerapp) S 220 220 0 0 -1 1077936448 92193 3350 27 6 5315 1846 5 2 20 0 21 0 50812397 1573294080 20887 18446744073709551615 367440556032 367440571376 549257168784 549257164416 547941309284 0 4612 0 38136 18446744073709551615 0 0 17 1 0 0 0 0 0 367440640656 367440642056 367813627904 549257169963 549257170062 549257170062 549257170910 0
1524302855160 CPU_STAT cpu  992577 335920 1136732 97892841 44164 138 33198 0 0 0
1524302855162 MEMORY 384105 20889 13184 4 0 44431 0
1524302855375 BATTERY -419062, 5631000, 36109962454, 4178
1524302855382 CPU_PID_STAT 13048 (ax.linklayerapp) S 220 220 0 0 -1 1077936448 92197 3350 27 6 5320 1848 5 2 20 0 21 0 50812397 1573285888 20889 18446744073709551615 367440556032 367440571376 549257168784 549257164416 547941309284 0 4612 0 38136 18446744073709551615 0 0 17 0 0 0 0 0 0 367440640656 367440642056 367813627904 549257169963 549257170062 549257170062 549257170910 0
1524302855383 CPU_STAT cpu  992586 335920 1136742 97892863 44164 138 33199 0 0 0
1524302855391 MEMORY 384103 20891 13182 4 0 44431 0
1524302855595 BATTERY -1101875, 5629500, 36109753715, 4178
1524302855596 CPU_PID_STAT 13048 (ax.linklayerapp) S 220 220 0 0 -1 1077936448 92201 3350 27 6 5327 1850 5 2 20 0 21 0 50812397 1573285888 20893 18446744073709551615 367440556032 367440571376 549257168784 549257164416 547941309284 0 4612 0 38136 18446744073709551615 0 0 17 0 0 0 0 0 0 367440640656 367440642056 367813627904 549257169963 549257170062 549257170062 549257170910 0
1524302855597 CPU_STAT cpu  992599 335920 1136751 97892884 44164 138 33199 0 0 0
1524302855598 MEMORY 384103 20895 13182 4 0 44431 0
1524302855808 BATTERY -368437, 5629500, 36109627145, 4178
1524302855812 CPU_PID_STAT 13048 (ax.linklayerapp) S 220 220 0 0 -1 1077936448 92206 3350 27 6 5327 1851 5 2 20 0 21 0 50812397 1573285888 20898 18446744073709551615 367440556032 367440571376 549257168784 549257164416 547941309284 0 4612 0 38136 18446744073709551615 0 0 17 0 0 0 0 0 0 367440640656 367440642056 367813627904 549257169963 549257170062 549257170062 549257170910 0
1524302855813 CPU_STAT cpu  992603 335920 1136757 97892916 44164 138 33199 0 0 0
1524302855815 MEMORY 384103 20900 13182 4 0 44431 0
1524302855957 EVENT_TRIGGER LINK_DISCOVERY_FOUND
1524302856022 BATTERY -910312, 5629500, 36109384899, 4178
1524302856023 CPU_PID_STAT 13048 (ax.linklayerapp) R 220 220 0 0 -1 1077936448 92211 3350 27 6 5331 1851 5 2 20 0 21 0 50812397 1573285888 20903 18446744073709551615 367440556032 367440571376 549257168784 549257164416 547941309284 0 4612 0 38136 18446744073709551615 0 0 17 0 0 0 0 0 0 367440640656 367440642056 367813627904 549257169963 549257170062 549257170062 549257170910 0
1524302856023 CPU_STAT cpu  992613 335920 1136767 97892936 44164 138 33200 0 0 0
1524302856024 MEMORY 384103 20906 13182 4 0 44431 0
1524302856228 BATTERY -839375, 5629000, 36109225888, 4178
1524302856229 CPU_PID_STAT 13048 (ax.linklayerapp) S 220 220 0 0 -1 1077936448 92224 3350 27 6 5335 1851 5 2 20 0 21 0 50812397 1573285888 20912 18446744073709551615 367440556032 367440571376 549257168784 549257164416 547941309284 0 4612 0 38136 18446744073709551615 0 0 17 0 0 0 0 0 0 367440640656 367440642056 367813627904 549257169963 549257170062 549257170062 549257170910 0
1524302856230 CPU_STAT cpu  992626 335920 1136774 97892954 44164 138 33200 0 0 0
1524302856231 MEMORY 384103 20919 13182 4 0 44431 0
1524302856433 BATTERY -1835312, 5628000, 36108878206, 4178
1524302856434 CPU_PID_STAT 13048 (ax.linklayerapp) S 220 220 0 0 -1 1077936448 92243 3350 27 6 5336 1852 5 2 20 0 21 0 50812397 1573285888 20925 18446744073709551615 367440556032 367440571376 549257168784 549257164416 547941309284 0 4612 0 38136 18446744073709551615 0 0 17 1 0 0 0 0 0 367440640656 367440642056 367813627904 549257169963 549257170062 549257170062 549257170910 0
1524302856434 CPU_STAT cpu  992635 335920 1136781 97892978 44164 138 33200 0 0 0
1524302856435 MEMORY 384103 20933 13182 4 0 44431 0
1524302856564 EVENT_TRIGGER LINK_CONNECTION_NEW
1524302856565 CONNECTED WIFI_DIRECT: Android_3479 (b6:ce:f6:09:7a:53): Data []
1524302856637 BATTERY -540937, 5628000, 36108775731, 4178
1524302856638 CPU_PID_STAT 13048 (ax.linklayerapp) S 220 220 0 0 -1 1077936448 92530 3350 27 6 5339 1852 5 2 20 0 22 0 50812397 1574383616 20944 18446744073709551615 367440556032 367440571376 549257168784 549257164416 547941309284 0 4612 0 38136 18446744073709551615 0 0 17 1 0 0 0 0 0 367440640656 367440642056 367813627904 549257169963 549257170062 549257170062 549257170910 0
1524302856639 CPU_STAT cpu  992641 335920 1136783 97893010 44164 138 33200 0 0 0
1524302856641 MEMORY 384371 20951 13182 4 0 44697 0
1524302856844 BATTERY -1224062, 5627000, 36108543844, 4178
1524302856845 CPU_PID_STAT 13048 (ax.linklayerapp) S 220 220 0 0 -1 1077936448 92550 3350 27 6 5343 1854 5 2 20 0 22 0 50812397 1574383616 20958 18446744073709551615 367440556032 367440571376 549257168784 549257164416 547941309284 0 4612 0 38136 18446744073709551615 0 0 17 1 0 0 0 0 0 367440640656 367440642056 367813627904 549257169963 549257170062 549257170062 549257170910 0
1524302856846 CPU_STAT cpu  992647 335920 1136790 97893041 44164 138 33200 0 0 0
1524302856847 MEMORY 384371 20965 13182 4 0 44697 0
1524302857052 BATTERY -456250, 5627000, 36108429588, 4178
1524302857055 CPU_PID_STAT 13048 (ax.linklayerapp) S 220 220 0 0 -1 1077936448 92569 3350 27 6 5343 1854 5 2 20 0 22 0 50812397 1574383616 20971 18446744073709551615 367440556032 367440571376 549257168784 549257164416 547941309284 0 4612 0 38136 18446744073709551615 0 0 17 0 0 0 0 0 0 367440640656 367440642056 367813627904 549257169963 549257170062 549257170062 549257170910 0
1524302857057 CPU_STAT cpu  992652 335920 1136794 97893075 44164 138 33200 0 0 0
1524302857059 MEMORY 384371 20978 13182 4 0 44697 0
1524302857094 PING_REQ 0
1524302857125 PING_RESP 0
1524302857126 PING_REQ 0
1524302857227 PING_RESP 0
1524302857228 PING_REQ 0
1524302857264 BATTERY -703437, 5627500, 36108209897, 4178
1524302857267 CPU_PID_STAT 13048 (ax.linklayerapp) R 220 220 0 0 -1 4194624 92860 3350 27 6 5352 1855 5 2 20 0 23 0 50812397 1575481344 20994 18446744073709551615 367440556032 367440571376 549257168784 549257159360 547940980996 0 4612 0 38136 18446744073709551615 0 0 17 1 0 0 0 0 0 367440640656 367440642056 367813627904 549257169963 549257170062 549257170062 549257170910 0
1524302857271 CPU_STAT cpu  992661 335920 1136798 97893100 44164 138 33200 0 0 0
1524302857275 MEMORY 384639 21001 13182 4 0 44963 0
1524302857317 PING_RESP 0
1524302857320 PING_REQ 0
1524302857422 PING_RESP 0
1524302857424 PING_REQ 0
1524302857482 BATTERY -693750, 5627500, 36108078473, 4178
1524302857485 CPU_PID_STAT 13048 (ax.linklayerapp) S 220 220 0 0 -1 1077936448 92884 3350 27 6 5364 1856 5 2 20 0 23 0 50812397 1575481344 21012 18446744073709551615 367440556032 367440571376 549257168784 549257164416 547941309284 0 4612 0 38136 18446744073709551615 0 0 17 1 0 0 0 0 0 367440640656 367440642056 367813627904 549257169963 549257170062 549257170062 549257170910 0
1524302857487 CPU_STAT cpu  992674 335920 1136802 97893123 44164 138 33200 0 0 0
1524302857488 MEMORY 384639 21019 13182 4 0 44963 0
1524302857520 PING_RESP 0
1524302857521 PING_REQ 0
1524302857611 PING_RESP 0
1524302857613 PING_REQ 0
1524302857694 BATTERY -699062, 5627000, 36107946043, 4178
1524302857696 CPU_PID_STAT 13048 (ax.linklayerapp) S 220 220 0 0 -1 1077936448 92908 3350 27 6 5375 1859 5 2 20 0 23 0 50812397 1575481344 21030 18446744073709551615 367440556032 367440571376 549257168784 549257164416 547941309284 0 4612 0 38136 18446744073709551615 0 0 17 1 0 0 0 0 0 367440640656 367440642056 367813627904 549257169963 549257170062 549257170062 549257170910 0
1524302857696 CPU_STAT cpu  992687 335920 1136810 97893142 44164 138 33200 0 0 0
1524302857697 MEMORY 384639 21037 13182 4 0 44963 0
1524302857703 PING_RESP 0
1524302857703 PING_REQ 0
1524302857790 PING_RESP 0
1524302857791 PING_REQ 0
1524302857894 PING_RESP 0
1524302857895 PING_REQ 0
1524302857904 BATTERY -1017812, 5625500, 36107753228, 4178
1524302857906 CPU_PID_STAT 13048 (ax.linklayerapp) S 220 220 0 0 -1 1077936448 92941 3350 27 6 5382 1859 5 2 20 0 23 0 50812397 1575481344 21057 18446744073709551615 367440556032 367440571376 549257168784 549257164416 547941309284 0 4612 0 38136 18446744073709551615 0 0 17 1 0 0 0 0 0 367440640656 367440642056 367813627904 549257169963 549257170062 549257170062 549257170910 0
1524302857908 CPU_STAT cpu  992696 335920 1136815 97893169 44164 138 33201 0 0 0
1524302857911 MEMORY 384639 21064 13182 4 0 44963 0
1524302857986 PING_RESP 0
1524302857988 PING_REQ 0
1524302858084 PING_RESP 0
1524302858085 PING_REQ 0
1524302858117 BATTERY -429062, 5626000, 36107576280, 4178
1524302858125 CPU_PID_STAT 13048 (ax.linklayerapp) S 220 220 0 0 -1 1077936448 92970 3350 27 6 5391 1861 5 2 20 0 23 0 50812397 1575481344 21080 18446744073709551615 367440556032 367440571376 549257168784 549257164416 547941309284 0 4612 0 38136 18446744073709551615 0 0 17 0 0 0 0 0 0 367440640656 367440642056 367813627904 549257169963 549257170062 549257170062 549257170910 0
1524302858137 CPU_STAT cpu  992709 335920 1136820 97893195 44164 138 33201 0 0 0
1524302858139 MEMORY 384639 21087 13182 4 0 44963 0
1524302858176 PING_RESP 0
1524302858177 PING_REQ 0
1524302858268 PING_RESP 0
1524302858269 PING_REQ 0
1524302858346 BATTERY -647812, 5626500, 36107453558, 4178
1524302858349 CPU_PID_STAT 13048 (ax.linklayerapp) S 220 220 0 0 -1 1077936448 92998 3350 27 6 5397 1862 5 2 20 0 23 0 50812397 1575481344 21102 18446744073709551615 367440556032 367440571376 549257168784 549257164416 547941309284 0 4612 0 38136 18446744073709551615 0 0 17 0 0 0 0 0 0 367440640656 367440642056 367813627904 549257169963 549257170062 549257170062 549257170910 0
1524302858351 CPU_STAT cpu  992719 335920 1136826 97893224 44164 138 33201 0 0 0
1524302858353 MEMORY 384639 21109 13182 4 0 44963 0
1524302858357 PING_RESP 0
1524302858358 PING_REQ 0
1524302858455 PING_RESP 0
1524302858456 PING_REQ 0
1524302858549 PING_RESP 0
1524302858551 PING_REQ 0
1524302858561 BATTERY -603750, 5626500, 36107339184, 4178
1524302858565 CPU_PID_STAT 13048 (ax.linklayerapp) R 220 220 0 0 -1 4194624 93031 3350 27 6 5406 1865 5 2 20 0 23 0 50812397 1575481344 20326 18446744073709551615 367440556032 367440571376 549257168784 549257154192 547940980996 0 4612 0 38136 18446744073709551615 0 0 17 0 0 0 0 0 0 367440640656 367440642056 367813627904 549257169963 549257170062 549257170062 549257170910 0
1524302858567 CPU_STAT cpu  992729 335920 1136831 97893247 44164 138 33202 0 0 0
1524302858575 MEMORY 384639 20333 13182 4 0 44963 0
1524302858638 PING_RESP 0
1524302858640 PING_REQ 0
1524302858727 PING_RESP 0
1524302858728 PING_REQ 0
1524302858783 BATTERY -675625, 5626500, 36107211193, 4178
1524302858785 CPU_PID_STAT 13048 (ax.linklayerapp) S 220 220 0 0 -1 1077936448 93058 3350 27 6 5415 1866 5 2 20 0 23 0 50812397 1575481344 20347 18446744073709551615 367440556032 367440571376 549257168784 549257164416 547941309284 0 4612 0 38136 18446744073709551615 0 0 17 0 0 0 0 0 0 367440640656 367440642056 367813627904 549257169963 549257170062 549257170062 549257170910 0
1524302858786 CPU_STAT cpu  992738 335920 1136834 97893274 44164 138 33202 0 0 0
1524302858787 MEMORY 384639 20354 13182 4 0 44963 0
1524302858819 PING_RESP 0
1524302858820 PING_REQ 0
1524302858912 PING_RESP 0
1524302858914 PING_REQ 10000000
1524302859023 BATTERY -835000, 5626500, 36106918864, 4178
1524302859026 CPU_PID_STAT 13048 (ax.linklayerapp) S 220 220 0 0 -1 1077936448 93090 3350 27 6 5427 1868 5 2 20 0 23 0 50812397 1575481344 20373 18446744073709551615 367440556032 367440571376 549257168784 549257164416 547941309284 0 4612 0 38136 18446744073709551615 0 0 17 0 0 0 0 0 0 367440640656 367440642056 367813627904 549257169963 549257170062 549257170062 549257170910 0
1524302859029 CPU_STAT cpu  992755 335920 1136844 97893292 44164 138 33204 0 0 0
1524302859031 MEMORY 384639 20380 13182 4 0 44963 0
1524302859239 BATTERY -1537812, 5624500, 36106627540, 4178
1524302859241 CPU_PID_STAT 13048 (ax.linklayerapp) S 220 220 0 0 -1 1077936448 93635 3350 27 6 5434 1869 5 2 20 0 23 0 50812397 1575481344 20708 18446744073709551615 367440556032 367440571376 549257168784 549257164416 547941309284 0 4612 0 38136 18446744073709551615 0 0 17 0 0 0 0 0 0 367440640656 367440642056 367813627904 549257169963 549257170062 549257170062 549257170910 0
1524302859242 CPU_STAT cpu  992765 335920 1136853 97893311 44164 138 33205 0 0 0
1524302859242 MEMORY 384639 20718 13182 4 0 44963 0
1524302859445 BATTERY -1904375, 5621500, 36106266776, 4178
1524302859448 CPU_PID_STAT 13048 (ax.linklayerapp) S 220 220 0 0 -1 1077936448 94406 3350 27 6 5442 1872 5 2 20 0 23 0 50812397 1575481344 21435 18446744073709551615 367440556032 367440571376 549257168784 549257163200 547940980996 0 4612 0 38136 18446744073709551615 0 0 17 1 0 0 0 0 0 367440640656 367440642056 367813627904 549257169963 549257170062 549257170062 549257170910 0
1524302859449 CPU_STAT cpu  992776 335924 1136865 97893321 44164 138 33209 0 0 0
1524302859450 MEMORY 384639 21437 13182 4 0 44963 0
1524302859652 BATTERY -2156875, 5618000, 36105858177, 4178
1524302859653 CPU_PID_STAT 13048 (ax.linklayerapp) S 220 220 0 0 -1 1077936448 94481 3350 27 6 5452 1876 5 2 20 0 23 0 50812397 1575481344 21466 18446744073709551615 367440556032 367440571376 549257168784 549257164416 547941309284 0 4612 0 38136 18446744073709551615 0 0 17 1 0 0 0 0 0 367440640656 367440642056 367813627904 549257169963 549257170062 549257170062 549257170910 0
1524302859653 CPU_STAT cpu  992789 335924 1136875 97893334 44164 138 33212 0 0 0
1524302859654 MEMORY 384639 21468 13182 4 0 44963 0
1524302859857 BATTERY -1799687, 5615500, 36105523993, 4178
1524302859857 CPU_PID_STAT 13048 (ax.linklayerapp) S 220 220 0 0 -1 1077936448 94488 3350 27 6 5457 1878 5 2 20 0 23 0 50812397 1575481344 21473 18446744073709551615 367440556032 367440571376 549257168784 549257164416 547941309284 0 4612 0 38136 18446744073709551615 0 0 17 1 0 0 0 0 0 367440640656 367440642056 367813627904 549257169963 549257170062 549257170062 549257170910 0
1524302859858 CPU_STAT cpu  992795 335924 1136879 97893358 44164 138 33215 0 0 0
1524302859858 MEMORY 384639 21475 13182 4 0 44963 0
1524302859903 PING_RESP 10000000
1524302859910 CONNECTION_CALL_BEGIN
1524302859915 CONNECTION_CALL_END
1524302859918 HARDWARE_CALL_BEGIN
1524302859931 HARDWARE_CALL_END
1524302860071 BATTERY -1026875, 5613000, 36104988529, 4178
1524302860073 CPU_PID_STAT 13048 (ax.linklayerapp) S 220 220 0 0 -1 1077936448 94497 3350 27 6 5466 1879 5 2 20 0 21 0 50812397 1573285888 21474 18446744073709551615 367440556032 367440571376 549257168784 549257164416 547941309284 0 4612 0 38136 18446744073709551615 0 0 17 1 0 0 0 0 0 367440640656 367440642056 367813627904 549257169963 549257170062 549257170062 549257170910 0
1524302860076 CPU_STAT cpu  992813 335924 1136894 97893368 44164 138 33216 0 0 0
1524302860077 MEMORY 384103 21508 13182 4 0 44431 0
1524302860090 EVENT_TRIGGER LINK_DISCOVERY_FOUND
1524302860092 EVENT_TRIGGER LINK_CONNECTION_LOST
1524302860095 CONNECTED WIFI_DIRECT: Android_3479 (b6:ce:f6:09:7a:53): Data []
1524302860097 EVENT_TRIGGER LINK_HARDWARE_OFF
1524302860100 HARDWARE true
1524302860100 EVENT_TRIGGER LINK_DETACH
